{
  "files": {
    "main.js": "/static/js/main.1af41f37.chunk.js",
    "main.js.map": "/static/js/main.1af41f37.chunk.js.map",
    "runtime~main.js": "/static/js/runtime~main.a8a9905a.js",
    "runtime~main.js.map": "/static/js/runtime~main.a8a9905a.js.map",
    "static/js/2.a6366620.chunk.js": "/static/js/2.a6366620.chunk.js",
    "static/js/2.a6366620.chunk.js.map": "/static/js/2.a6366620.chunk.js.map",
    "index.html": "/index.html",
    "precache-manifest.543cda9a8928c63e1d7cd90d56fc08b9.js": "/precache-manifest.543cda9a8928c63e1d7cd90d56fc08b9.js",
    "service-worker.js": "/service-worker.js",
    "static/media/logo.png": "/static/media/logo.86781c86.png"
  }
}